{
  "count": 19,
  "next": "http://bikehub/rest/news/mainTags/?page=2",
  "previous": null,
  "results": [
    {
      "main_category_tag_id": "04202150-ef74-4b8d-b042-dc702c8fb276",
      "name": "試乗",
      "created_at": "2020-08-09T21:19:05.403043+09:00",
      "updated_at": "2020-08-09T21:19:05.403086+09:00"
    },
    {
      "main_category_tag_id": "1a627848-7e42-4784-a2e0-b7b79a9a0ad0",
      "name": "電動バイク",
      "created_at": "2020-08-20T23:26:59.590007+09:00",
      "updated_at": "2020-08-20T23:26:59.590054+09:00"
    },
    {
      "main_category_tag_id": "28d2f2fe-4289-4f28-98e1-6bf446fd043d",
      "name": "原付",
      "created_at": "2020-08-09T21:16:54.226344+09:00",
      "updated_at": "2020-08-09T21:16:54.226391+09:00"
    },
    {
      "main_category_tag_id": "2c6a42ab-a6fa-46fd-a2ea-25d708f422fe",
      "name": "サーキット",
      "created_at": "2020-08-09T21:19:40.568101+09:00",
      "updated_at": "2020-08-09T21:19:40.568127+09:00"
    },
    {
      "main_category_tag_id": "36412a02-bc19-4b98-8833-c13d5a25d586",
      "name": "ツーリング",
      "created_at": "2020-08-09T21:20:38.580012+09:00",
      "updated_at": "2020-08-09T21:20:38.580038+09:00"
    },
    {
      "main_category_tag_id": "393599f6-6a27-4502-877b-920871b8831e",
      "name": "ヘルメット",
      "created_at": "2020-08-09T21:22:25.883001+09:00",
      "updated_at": "2020-08-09T21:22:25.883028+09:00"
    },
    {
      "main_category_tag_id": "5201f3dc-92dc-444c-acb1-892918981119",
      "name": "新型",
      "created_at": "2020-08-09T21:21:22.452289+09:00",
      "updated_at": "2020-08-09T21:21:22.452316+09:00"
    },
    {
      "main_category_tag_id": "527f7ecf-2592-41d0-af76-cb50b62b444c",
      "name": "バイク",
      "created_at": "2020-08-09T21:05:59.006508+09:00",
      "updated_at": "2020-08-09T21:05:59.006575+09:00"
    },
    {
      "main_category_tag_id": "54d0b13b-93f0-49c0-be9d-553a97514022",
      "name": "大図鑑",
      "created_at": "2020-08-28T16:21:52.874981+09:00",
      "updated_at": "2020-08-28T16:21:52.875018+09:00"
    },
    {
      "main_category_tag_id": "6bdcacc1-3ac8-4593-aa1f-2a1606392cb9",
      "name": "名車",
      "created_at": "2020-08-09T21:19:29.971326+09:00",
      "updated_at": "2020-08-09T21:19:29.971356+09:00"
    },
    {
      "main_category_tag_id": "94614fc3-6b2f-419f-8d42-d5c0dc0ae799",
      "name": "カスタム",
      "created_at": "2020-08-09T21:18:27.215396+09:00",
      "updated_at": "2020-08-09T21:18:27.215422+09:00"
    },
    {
      "main_category_tag_id": "a193a3e6-2479-40af-bca0-2aaf0f8793b2",
      "name": "スーパースポーツ",
      "created_at": "2020-08-09T21:18:56.729683+09:00",
      "updated_at": "2020-08-09T21:18:56.729710+09:00"
    },
    {
      "main_category_tag_id": "abd8bf4b-e227-4657-9066-66079a88a6de",
      "name": "モータースポーツ",
      "created_at": "2020-08-09T21:21:53.418552+09:00",
      "updated_at": "2020-08-09T21:21:59.230596+09:00"
    },
    {
      "main_category_tag_id": "bf0419fa-2a0b-4a0d-97b0-7c27a63f34a6",
      "name": "レビュー",
      "created_at": "2020-08-09T21:27:44.740127+09:00",
      "updated_at": "2020-08-09T21:27:44.740237+09:00"
    },
    {
      "main_category_tag_id": "c667f9b0-9176-42c7-b17e-53202cdfcad0",
      "name": "林道",
      "created_at": "2020-08-09T21:20:26.014562+09:00",
      "updated_at": "2020-08-09T21:20:26.014589+09:00"
    },
    {
      "main_category_tag_id": "e7b6a855-70a0-45f9-8e04-f0a30361a101",
      "name": "写真",
      "created_at": "2020-08-09T21:16:39.371320+09:00",
      "updated_at": "2020-08-09T21:16:39.371346+09:00"
    },
    {
      "main_category_tag_id": "f0aa58a9-c53e-4084-9931-4517b8e04264",
      "name": "オフロード",
      "created_at": "2020-08-09T21:21:09.453978+09:00",
      "updated_at": "2020-08-09T21:21:09.454006+09:00"
    },
    {
      "main_category_tag_id": "f91d04b7-dcc1-4ac2-a404-f8efae70aba1",
      "name": "ライディングギア",
      "created_at": "2020-08-20T23:26:23.090108+09:00",
      "updated_at": "2020-08-20T23:26:23.090151+09:00"
    },
    {
      "main_category_tag_id": "fb602ad3-8d69-4fc7-a60b-3586ce5531ce",
      "name": "通勤",
      "created_at": "2020-08-09T21:20:51.549820+09:00",
      "updated_at": "2020-08-09T21:20:51.549849+09:00"
    })
  ]
}
